[
  {
    "name": "Boing",
    "type": "PASSENGERE",
    "capacity": 250,
    "lift": 5000,
    "fuel": 100,
    "range": 2000
  },
  {
    "name": "Airbus",
    "type": "PASSENGERE",
    "capacity": 250,
    "lift": 5000,
    "fuel": 300,
    "range": 1000
  },
  {
    "name": "Airbus",
    "type": "PASSENGERE",
    "capacity": 250,
    "lift": 5000,
    "fuel": 100,
    "range": 500
  }
]
